<?xml version="1.0" encoding="UTF-8" standalone="no"?>
<!-- Created with Inkscape (http://www.inkscape.org/) -->

<svg
   xmlns:osb="http://www.openswatchbook.org/uri/2009/osb"
   xmlns:dc="http://purl.org/dc/elements/1.1/"
   xmlns:cc="http://creativecommons.org/ns#"
   xmlns:rdf="http://www.w3.org/1999/02/22-rdf-syntax-ns#"
   xmlns:svg="http://www.w3.org/2000/svg"
   xmlns="http://www.w3.org/2000/svg"
   xmlns:sodipodi="http://sodipodi.sourceforge.net/DTD/sodipodi-0.dtd"
   xmlns:inkscape="http://www.inkscape.org/namespaces/inkscape"
   width="765"
   height="990"
   id="svg2"
   version="1.1"
   inkscape:version="0.48.4 r9939"
   sodipodi:docname="pluton-tech-diagram.svg">
  <defs
     id="defs4">
    <linearGradient
       id="linearGradient3760"
       osb:paint="solid">
      <stop
         style="stop-color:#000000;stop-opacity:0;"
         offset="0"
         id="stop3762" />
    </linearGradient>
  </defs>
  <sodipodi:namedview
     id="base"
     pagecolor="#ffffff"
     bordercolor="#666666"
     borderopacity="1.0"
     inkscape:pageopacity="0.0"
     inkscape:pageshadow="2"
     inkscape:zoom="1.1503268"
     inkscape:cx="384.23864"
     inkscape:cy="227.91941"
     inkscape:document-units="px"
     inkscape:current-layer="layer1"
     showgrid="true"
     inkscape:window-width="1074"
     inkscape:window-height="947"
     inkscape:window-x="734"
     inkscape:window-y="65"
     inkscape:window-maximized="0"
     units="in">
    <inkscape:grid
       type="xygrid"
       id="grid2982"
       empspacing="5"
       visible="true"
       enabled="true"
       snapvisiblegridlinesonly="true" />
  </sodipodi:namedview>
  <metadata
     id="metadata7">
    <rdf:RDF>
      <cc:Work
         rdf:about="">
        <dc:format>image/svg+xml</dc:format>
        <dc:type
           rdf:resource="http://purl.org/dc/dcmitype/StillImage" />
        <dc:title />
      </cc:Work>
    </rdf:RDF>
  </metadata>
  <g
     inkscape:label="Layer 1"
     inkscape:groupmode="layer"
     id="layer1"
     transform="translate(0,-62.362)">
    <path
       style="fill:#000000;fill-opacity:1"
       id="path2986"
       d="m 331.51665,222.17353 c -0.61649,4.05348 0.0728,8.16248 0.45636,12.20599 0.44499,5.68446 1.08528,11.35076 1.44103,17.04248 0.21816,5.53748 0.29816,11.07941 0.44074,16.61947 0.18054,3.70118 0.23423,7.40623 0.36458,11.10914 0.0773,2.37654 0.19098,4.75392 0.12408,7.13164 0.007,2.9009 -0.16933,5.79782 -0.19542,8.69735 -0.0595,3.00631 -0.0441,6.01184 0.43027,8.98453 0.51147,2.04307 0.42294,4.19158 0.89602,6.23136 0.51222,1.72734 0.72955,3.50789 0.85371,5.29859 0.29643,1.87878 1.76126,2.82949 3.36512,3.58343 2.86497,1.02097 5.8092,1.65585 8.82682,1.98774 3.59809,0.2497 7.18384,0.6786 10.75223,1.20329 3.70976,0.66354 7.41067,0.94581 11.14433,0.39796 3.1634,-0.4411 5.9956,-1.91624 8.76698,-3.4138 -1.10649,0.6284 -2.19834,1.28329 -3.31946,1.88519 -0.53974,0.28978 1.06122,-0.61351 1.57428,-0.94825 2.08976,-1.36346 4.00165,-3.02692 5.86571,-4.67737 3.03955,-2.73669 5.33333,-6.14903 7.85338,-9.33957 2.72334,-3.41678 5.59875,-6.71666 8.57286,-9.91773 3.47073,-3.7173 7.52488,-6.76256 11.69624,-9.6359 5.83952,-3.97171 11.95591,-7.53133 18.64975,-9.81758 4.42481,-1.41413 9.04754,-1.64695 13.65102,-1.76244 4.56707,-0.23455 9.09621,0.0351 13.61838,0.66757 5.78697,0.90988 11.63011,1.2791 17.48009,1.42085 4.54166,0.14235 9.08593,-0.19848 13.49444,-1.30017 1.92949,-1.21073 6.7542,-2.55168 -2.54147,1.44116 -0.30251,0.12994 0.43603,-0.49878 0.60155,-0.78339 0.49659,-0.85389 0.57871,-1.45262 0.83338,-2.41459 0.78513,-4.84023 0.91647,-9.76808 1.26357,-14.65601 0.27933,-5.3326 0.7334,-10.65387 1.41013,-15.94985 0.55618,-3.91854 0.73938,-7.86402 0.71752,-11.81676 -0.037,-2.34346 -0.0936,-4.68649 -0.1226,-7.03008 -0.19038,-1.95179 -0.66169,-2.53092 -2.22746,-3.53327 -2.82459,-1.32826 -6.07205,-1.34919 -9.12934,-1.55659 -7.79576,-0.55988 -15.58748,-1.04004 -23.39984,-1.30284 -8.98871,-0.4956 -17.97971,-0.8311 -26.9803,-0.98233 -8.22399,-0.0985 -16.44837,-0.1744 -24.67297,-0.18589 -8.48032,-0.0503 -16.96153,-0.0451 -25.44162,0.0389 -6.89913,0.1642 -13.80486,0.0977 -20.70191,0.31166 -7.21499,0.27354 -14.41309,0.95448 -21.61362,1.49693 -2.77531,0.1861 -5.54989,0.38251 -8.32512,0.56987 0,0 4.21581,-3.08244 4.21581,-3.08244 l 0,0 c 2.53417,0.0297 5.06921,0.0531 7.60227,-0.0561 7.23797,-0.28298 14.43374,-1.03528 21.65873,-1.51875 6.73731,-0.28613 13.4725,0.0153 20.21292,0.0634 8.44933,0.0802 16.89963,0.0711 25.34916,0.029 8.22491,0.007 16.45143,-0.0566 24.67382,0.19611 8.89903,0.29973 17.79074,0.76815 26.68411,1.19685 8.24044,0.15702 16.48453,0.47929 24.72623,0.34601 3.46247,-0.0218 7.26743,-0.45779 10.51496,0.95772 1.84982,1.03346 2.30304,2.07201 2.39742,4.18645 -0.023,2.42019 -0.0783,4.84097 -0.26847,7.25477 -0.32112,4.06219 -0.67085,8.12772 -1.27819,12.15852 -0.82628,5.35031 -1.64361,10.71393 -1.86719,16.13096 -0.18702,4.71927 -0.0101,9.41694 -0.0445,14.13581 -0.1145,0.88584 -0.15607,1.65887 -0.47556,2.4991 -1.22985,3.23441 -5.42256,4.33492 -8.48512,5.43066 -4.12542,0.66762 -8.34709,0.56249 -12.50937,0.41492 -5.95125,-0.26206 -11.9127,-0.46706 -17.8277,-1.22197 -4.57889,-0.4508 -9.17112,-0.61032 -13.77188,-0.46463 -4.48803,0.14264 -9.01103,0.40045 -13.33562,1.71625 -2.23577,0.76078 -2.68376,0.84777 -4.86306,1.86312 -0.85208,0.39698 -1.61032,1.02178 -2.51586,1.27402 -0.66206,0.18442 2.34114,-1.44043 1.76547,-1.065 -0.76146,0.49661 -1.54874,0.95245 -2.32311,1.42868 -0.76883,0.50149 -1.53766,1.00298 -2.30649,1.50447 -4.04034,2.81572 -7.98564,5.76461 -11.3615,9.37899 -2.91767,3.22375 -5.83585,6.46041 -8.54148,9.86363 -2.50224,3.13841 -4.60088,6.63371 -7.61216,9.33502 -4.09353,3.78455 -8.58902,6.86191 -13.61238,9.35845 -2.83236,1.52295 -5.73803,3.00425 -8.99068,3.32245 -3.66978,0.40081 -7.27406,-0.18632 -10.90138,-0.75331 -3.69812,-0.44995 -7.41715,-0.65836 -11.13086,-0.9288 -3.07253,-0.42592 -6.08514,-1.08484 -9.04553,-2.02282 -2.02421,-0.7057 -3.76142,-1.67213 -3.9898,-4.00822 -0.14097,-1.76431 -0.39941,-3.50775 -0.84263,-5.22401 -0.32108,-2.11709 -0.30166,-4.27783 -0.66002,-6.39428 -0.33539,-3.07295 -0.0923,-6.13399 -0.14511,-9.22002 -0.0258,-2.83329 -0.20415,-5.66386 -0.19487,-8.49866 -0.069,-2.42187 0.0562,-4.84356 0.13459,-7.26413 0.13973,-3.82668 0.21074,-7.65517 0.37155,-11.48119 0.0978,-5.57174 0.12582,-11.14484 -0.20376,-16.71098 -0.31395,-5.66532 -0.87348,-11.29645 -1.61432,-16.92221 -0.5183,-3.86213 -1.16836,-7.6997 -1.92259,-11.52229 0,0 5.86068,-2.98617 5.86068,-2.98617 z"
       inkscape:connector-curvature="0" />
    <path
       style="fill:#000000;fill-opacity:1"
       id="path2988"
       d="m 320.361,238.4792 c -0.92742,5.64763 -0.87959,11.39328 -0.92283,17.09825 0.25167,7.40519 0.12401,14.89136 1.27686,22.22906 0.53927,2.82017 1.15062,5.62326 1.42956,8.48384 -0.10493,2.31921 0.24472,4.59024 0.5041,6.88237 0.25758,1.95832 0.42225,3.92567 0.53306,5.89711 0,0 -5.47769,2.82027 -5.47769,2.82027 l 0,0 c -0.056,-1.96549 -0.13629,-3.93442 -0.43163,-5.8814 -0.39495,-2.28067 -0.62132,-4.54701 -0.64014,-6.86361 -0.10766,-3.02853 -0.29171,-6.0556 -0.26678,-9.08743 0.16016,-7.5857 0.39575,-15.18216 -0.27917,-22.7549 -0.49066,-5.29415 -0.69402,-10.6281 -1.49808,-15.8822 0,0 5.77274,-2.94136 5.77274,-2.94136 z"
       inkscape:connector-curvature="0" />
    <rect
       style="fill:#000000;fill-opacity:0;stroke:#000000;stroke-width:1.11803401;stroke-opacity:1"
       id="rect2990"
       width="60"
       height="30"
       x="234.12939"
       y="290.07791" />
    <text
       xml:space="preserve"
       style="font-size:8px;font-style:normal;font-weight:normal;line-height:125%;letter-spacing:0px;word-spacing:0px;fill:#000000;fill-opacity:1;stroke:none;font-family:Sans"
       x="240"
       y="302.362"
       id="text3766"
       sodipodi:linespacing="125%"><tspan
         sodipodi:role="line"
         id="tspan3768"
         x="240"
         y="302.362"
         style="font-size:12px">PianoBar</tspan><tspan
         sodipodi:role="line"
         x="240"
         y="317.362"
         id="tspan3770"
         style="font-size:12px">MIDI intf</tspan></text>
    <rect
       style="color:#000000;fill:#ffffff;fill-opacity:1;fill-rule:nonzero;stroke:#000000;stroke-width:1;stroke-linecap:butt;stroke-linejoin:miter;stroke-miterlimit:4;stroke-opacity:1;stroke-dasharray:none;stroke-dashoffset:0;marker:none;visibility:visible;display:inline;overflow:visible;enable-background:accumulate"
       id="rect3772"
       width="200"
       height="150"
       x="430"
       y="572.362" />
    <text
       xml:space="preserve"
       style="font-size:10px;font-style:normal;font-weight:normal;line-height:125%;letter-spacing:0px;word-spacing:0px;fill:#000000;fill-opacity:1;stroke:none;font-family:Sans"
       x="530"
       y="712.362"
       id="text3774"
       sodipodi:linespacing="125%"><tspan
         sodipodi:role="line"
         id="tspan3776"
         x="530"
         y="712.362"
         style="font-size:12px">mixer</tspan></text>
    <path
       style="fill:#000000;fill-opacity:1;stroke:#000000;stroke-opacity:1"
       id="path3804"
       d="m 506.79579,252.83324 c 4.74571,2.83253 9.47495,5.68795 14.3826,8.23231 5.9538,2.95962 11.92398,5.94364 18.19383,8.18051 0,0 -4.19028,2.79111 -4.19028,2.79111 l 0,0 c -5.72841,-2.95944 -11.31558,-6.19966 -17.19109,-8.87002 -5.35565,-2.46207 -10.62324,-5.46933 -16.4096,-6.7627 0,0 5.21454,-3.57121 5.21454,-3.57121 z"
       inkscape:connector-curvature="0" />
    <path
       style="fill:#000000;fill-opacity:1;stroke:#000000;stroke-opacity:1"
       id="path3806"
       d="m 521.32353,251.76148 c -1.0048,6.4575 -1.31703,13.01537 -1.68104,19.53607 -0.62048,6.98399 -0.016,13.95136 0.57695,20.90816 0.53868,4.19064 0.30947,8.39587 0.1399,12.598 -0.0931,2.52751 -0.10939,5.05682 -0.11508,7.58575 0.0371,2.10919 0.0648,4.18775 -0.31372,6.26707 -0.27722,2.46277 -0.92911,4.85219 -1.30873,7.29755 -0.18635,1.09842 -0.25796,2.16864 -0.1586,3.27408 0,0 -5.52491,2.84279 -5.52491,2.84279 l 0,0 c 0.005,-1.17115 0.0919,-2.32562 0.30182,-3.48109 0.39564,-2.4188 0.94779,-4.80633 1.2141,-7.24344 0.22944,-2.05795 0.33627,-4.10102 0.30697,-6.1763 0.0931,-2.63218 0.29212,-5.25781 0.61265,-7.87274 0.46307,-4.30101 0.88133,-8.60277 0.66009,-12.93632 -0.0186,-7.15166 0.0844,-14.29923 0.39866,-21.44482 0.1671,-6.08865 0.55088,-12.27503 -0.76614,-18.27233 0,0 5.65708,-2.88243 5.65708,-2.88243 z"
       inkscape:connector-curvature="0" />
    <path
       style="fill:#000000;fill-opacity:1;stroke:#000000;stroke-opacity:1"
       id="path3808"
       d="m 509.26904,323.30269 c -2.17235,0.44013 -4.2243,1.23826 -6.33584,1.88321 -2.42806,1.16234 -1.35144,0.67206 3.68638,-2.16877 0.27214,-0.15346 -0.54206,0.3109 -0.81001,0.47157 -1.09097,0.65414 -2.08456,1.39349 -3.08274,2.18062 -1.72057,1.57959 -3.38641,3.22259 -4.57121,5.24848 -1.19961,2.4128 -0.62918,4.902 0.5372,7.18952 1.7127,3.40563 4.57363,5.41907 8.066,6.68588 2.82999,0.80853 5.78634,0.82555 8.70442,0.89656 4.37525,0.0692 8.74302,-0.47032 13.07313,-1.04695 5.51593,-0.54903 10.89598,-1.81184 15.9786,-4.01881 4.52391,-2.60478 -0.76706,0.46605 -1.60053,0.78423 -0.42144,0.1609 0.69664,-0.57622 1.01045,-0.9003 0.80525,-0.83163 1.24512,-1.74518 1.65731,-2.80482 0.65067,-2.0289 0.57891,-3.92875 -0.24198,-5.87283 -1.38243,-1.96784 -3.19075,-3.60241 -4.98025,-5.19305 -2.05661,-1.7179 -4.15283,-3.44124 -6.50629,-4.73969 -1.88466,-0.7258 -3.88672,-1.20709 -5.87187,-1.5935 -2.69292,-0.49912 -5.43814,-0.51095 -8.1669,-0.5201 -1.39764,0.0968 -2.77382,-0.22148 -4.14655,-0.43323 0,0 4.58909,-3.26408 4.58909,-3.26408 l 0,0 c 1.46705,0.0789 2.9342,0.16399 4.40341,0.19162 2.77,0.10569 5.54598,0.22814 8.30023,0.54789 2.06509,0.3765 4.21056,0.69056 6.06165,1.73597 2.20512,1.51151 4.1118,3.42373 6.29403,4.97374 1.9733,1.53 3.96443,3.18977 5.35345,5.28477 1.00726,2.06394 1.15681,4.06796 0.48941,6.28893 -1.70157,4.66774 -6.42237,6.6338 -10.70504,8.71318 -5.01294,1.9276 -10.27413,2.90829 -15.59377,3.57336 -4.64998,0.74439 -9.32544,1.60346 -14.04543,1.66224 -2.96452,10e-4 -5.96541,-0.0436 -8.78119,-1.0947 -3.44274,-1.44445 -6.19634,-3.9014 -8.22527,-7.04228 -1.42119,-2.28953 -2.47853,-4.84834 -1.28973,-7.48775 1.19344,-2.18242 2.95186,-3.86384 4.74389,-5.56213 3.10857,-2.69107 6.75178,-4.9309 10.55472,-6.46196 2.20065,-0.68065 4.43695,-1.2723 6.57299,-2.13438 0,0 -5.12176,4.02756 -5.12176,4.02756 z"
       inkscape:connector-curvature="0" />
    <path
       style="fill:none;stroke:#000000;stroke-width:1px;stroke-linecap:butt;stroke-linejoin:miter;stroke-opacity:1"
       d="m 520,352.362 0,220"
       id="path3810"
       inkscape:connector-curvature="0"
       sodipodi:nodetypes="cc" />
    <path
       style="fill:none;stroke:#000000;stroke-width:1px;stroke-linecap:butt;stroke-linejoin:miter;stroke-opacity:1"
       d="m 509.82992,561.08806 10,10 10,-10"
       id="path3812"
       inkscape:connector-curvature="0" />
    <rect
       style="color:#000000;fill:#ffffff;fill-opacity:1;fill-rule:nonzero;stroke:#000000;stroke-width:1;stroke-linecap:butt;stroke-linejoin:miter;stroke-miterlimit:4;stroke-opacity:1;stroke-dasharray:none;stroke-dashoffset:0;marker:none;visibility:visible;display:inline;overflow:visible;enable-background:accumulate"
       id="rect3814"
       width="200"
       height="150"
       x="130"
       y="572.362" />
    <text
       xml:space="preserve"
       style="font-size:10px;font-style:normal;font-weight:normal;line-height:125%;letter-spacing:0px;word-spacing:0px;fill:#000000;fill-opacity:1;stroke:none;font-family:Sans"
       x="150"
       y="642.362"
       id="text3820"
       sodipodi:linespacing="125%"><tspan
         sodipodi:role="line"
         id="tspan3822"
         x="150"
         y="642.362"
         style="font-size:12px">MIDI/audio interface</tspan><tspan
         sodipodi:role="line"
         x="150"
         y="657.362"
         style="font-size:12px"
         id="tspan3858">(M-audio</tspan><tspan
         sodipodi:role="line"
         x="150"
         y="672.362"
         style="font-size:12px"
         id="tspan3860">Fast Track Ultra)</tspan></text>
    <path
       style="fill:none;stroke:#000000;stroke-width:1px;stroke-linecap:butt;stroke-linejoin:miter;stroke-opacity:1"
       d="m 430,622.362 -100,0"
       id="path3824"
       inkscape:connector-curvature="0" />
    <path
       style="fill:none;stroke:#000000;stroke-width:1px;stroke-linecap:butt;stroke-linejoin:miter;stroke-opacity:1"
       d="m 340,612.362 -10,10 10,10"
       id="path3826"
       inkscape:connector-curvature="0" />
    <path
       style="fill:none;stroke:#000000;stroke-width:1px;stroke-linecap:butt;stroke-linejoin:miter;stroke-opacity:1"
       d="m 390,612.362 -20,20"
       id="path3828"
       inkscape:connector-curvature="0" />
    <text
       xml:space="preserve"
       style="font-size:12px;font-style:normal;font-weight:normal;line-height:125%;letter-spacing:0px;word-spacing:0px;fill:#000000;fill-opacity:1;stroke:none;font-family:Sans"
       x="375.9798"
       y="607.68933"
       id="text3830"
       sodipodi:linespacing="125%"><tspan
         sodipodi:role="line"
         id="tspan3832"
         x="375.9798"
         y="607.68933">1</tspan></text>
    <path
       style="fill:none;stroke:#000000;stroke-width:1px;stroke-linecap:butt;stroke-linejoin:miter;stroke-opacity:1"
       d="m 330,682.362 100,0"
       id="path3834"
       inkscape:connector-curvature="0" />
    <path
       style="fill:none;stroke:#000000;stroke-width:1px;stroke-linecap:butt;stroke-linejoin:miter;stroke-opacity:1"
       d="m 420,672.362 10,10 -10,10"
       id="path3836"
       inkscape:connector-curvature="0" />
    <path
       style="fill:none;stroke:#000000;stroke-width:1px;stroke-linecap:butt;stroke-linejoin:miter;stroke-opacity:1"
       d="m 390,672.362 -20,20"
       id="path3838"
       inkscape:connector-curvature="0" />
    <text
       xml:space="preserve"
       style="font-size:12px;font-style:normal;font-weight:normal;line-height:125%;letter-spacing:0px;word-spacing:0px;fill:#000000;fill-opacity:1;stroke:none;font-family:Sans"
       x="379.01025"
       y="666.78326"
       id="text3840"
       sodipodi:linespacing="125%"><tspan
         sodipodi:role="line"
         id="tspan3842"
         x="379.01025"
         y="666.78326">6</tspan></text>
    <text
       xml:space="preserve"
       style="font-size:12px;font-style:normal;font-weight:normal;line-height:125%;letter-spacing:0px;word-spacing:0px;fill:#000000;fill-opacity:1;stroke:none;font-family:Sans"
       x="299.20819"
       y="618.80103"
       id="text3846"
       sodipodi:linespacing="125%"><tspan
         sodipodi:role="line"
         id="tspan3848"
         x="299.20819"
         y="618.80103">1/4&quot;</tspan><tspan
         sodipodi:role="line"
         x="299.20819"
         y="633.80103"
         id="tspan3850">TRS</tspan></text>
    <text
       xml:space="preserve"
       style="font-size:12px;font-style:normal;font-weight:normal;line-height:125%;letter-spacing:0px;word-spacing:0px;fill:#000000;fill-opacity:1;stroke:none;font-family:Sans"
       x="298.70312"
       y="675.87463"
       id="text3852"
       sodipodi:linespacing="125%"><tspan
         sodipodi:role="line"
         id="tspan3854"
         x="298.70312"
         y="675.87463">1/4&quot;</tspan><tspan
         sodipodi:role="line"
         x="298.70312"
         y="690.87463"
         id="tspan3856">TRS</tspan></text>
    <text
       xml:space="preserve"
       style="font-size:12px;font-style:normal;font-weight:normal;line-height:125%;letter-spacing:0px;word-spacing:0px;fill:#000000;fill-opacity:1;stroke:none;font-family:Sans"
       x="442.64987"
       y="625.367"
       id="text3862"
       sodipodi:linespacing="125%"><tspan
         sodipodi:role="line"
         id="tspan3864"
         x="442.64987"
         y="625.367">AUX pre-fader</tspan></text>
    <text
       xml:space="preserve"
       style="font-size:12px;font-style:normal;font-weight:normal;line-height:125%;letter-spacing:0px;word-spacing:0px;fill:#000000;fill-opacity:1;stroke:none;font-family:Sans"
       x="444.67017"
       y="682.94568"
       id="text3866"
       sodipodi:linespacing="125%"><tspan
         sodipodi:role="line"
         id="tspan3868"
         x="444.67017"
         y="682.94568">channel </tspan><tspan
         sodipodi:role="line"
         x="444.67017"
         y="697.94568"
         id="tspan3893">inputs</tspan></text>
    <path
       sodipodi:nodetypes="cc"
       inkscape:connector-curvature="0"
       id="path3024"
       d="m 260,322.362 0,250"
       style="fill:none;stroke:#000000;stroke-width:1px;stroke-linecap:butt;stroke-linejoin:miter;stroke-opacity:1" />
    <path
       inkscape:connector-curvature="0"
       id="path3026"
       d="m 249.03446,561.95738 10,10 10,-10"
       style="fill:none;stroke:#000000;stroke-width:1px;stroke-linecap:butt;stroke-linejoin:miter;stroke-opacity:1" />
    <text
       xml:space="preserve"
       style="font-size:16px;font-style:normal;font-variant:normal;font-weight:normal;font-stretch:normal;text-align:start;line-height:125%;letter-spacing:0px;word-spacing:0px;writing-mode:lr-tb;text-anchor:start;fill:#000000;fill-opacity:1;stroke:none;font-family:Utopia;-inkscape-font-specification:Utopia"
       x="268.61365"
       y="451.24835"
       id="text3028"
       sodipodi:linespacing="125%"><tspan
         sodipodi:role="line"
         id="tspan3030"
         x="268.61365"
         y="451.24835"
         style="font-size:12px">MIDI</tspan></text>
    <text
       xml:space="preserve"
       style="font-size:12px;font-style:normal;font-variant:normal;font-weight:normal;font-stretch:normal;text-align:start;line-height:125%;letter-spacing:0px;word-spacing:0px;writing-mode:lr-tb;text-anchor:start;fill:#000000;fill-opacity:1;stroke:none;font-family:Utopia;-inkscape-font-specification:Utopia"
       x="550.53973"
       y="459.25403"
       id="text3032"
       sodipodi:linespacing="125%"><tspan
         sodipodi:role="line"
         id="tspan3034"
         x="550.53973"
         y="459.25403" /></text>
    <text
       xml:space="preserve"
       style="font-size:12px;font-style:normal;font-variant:normal;font-weight:normal;font-stretch:normal;text-align:start;line-height:125%;letter-spacing:0px;word-spacing:0px;writing-mode:lr-tb;text-anchor:start;fill:#000000;fill-opacity:1;stroke:none;font-family:Utopia;-inkscape-font-specification:Utopia"
       x="532.88635"
       y="452.11768"
       id="text3804"
       sodipodi:linespacing="125%"><tspan
         sodipodi:role="line"
         id="tspan3806"
         x="532.88635"
         y="452.11768">mic</tspan></text>
    <rect
       style="fill:#000000;fill-opacity:0;stroke:#000000;stroke-width:1.11803401;stroke-opacity:1"
       id="rect2990-8"
       width="60"
       height="30"
       x="116.73734"
       y="274.4245" />
    <text
       xml:space="preserve"
       style="font-size:12px;font-style:normal;font-variant:normal;font-weight:normal;font-stretch:normal;text-align:start;line-height:125%;letter-spacing:0px;word-spacing:0px;writing-mode:lr-tb;text-anchor:start;fill:#000000;fill-opacity:1;stroke:none;font-family:Utopia;-inkscape-font-specification:Utopia"
       x="120"
       y="292.362"
       id="text3826"
       sodipodi:linespacing="125%"><tspan
         sodipodi:role="line"
         id="tspan3828"
         x="120"
         y="292.362">speaker 1</tspan></text>
    <path
       style="fill:none;stroke:#000000;stroke-width:1px;stroke-linecap:butt;stroke-linejoin:miter;stroke-opacity:1"
       d="m 610,502.362 0.86364,68.71023"
       id="path3810-5"
       inkscape:connector-curvature="0"
       sodipodi:nodetypes="cc" />
    <path
       style="fill:none;stroke:#000000;stroke-width:1px;stroke-linecap:butt;stroke-linejoin:miter;stroke-opacity:1"
       d="m 600,512.362 10,-10 10,10"
       id="path3848"
       inkscape:connector-curvature="0" />
    <text
       xml:space="preserve"
       style="font-size:12px;font-style:normal;font-variant:normal;font-weight:normal;font-stretch:normal;text-align:start;line-height:125%;letter-spacing:0px;word-spacing:0px;writing-mode:lr-tb;text-anchor:start;fill:#000000;fill-opacity:1;stroke:none;font-family:Utopia;-inkscape-font-specification:Utopia"
       x="589.39203"
       y="486.02109"
       id="text3850"
       sodipodi:linespacing="125%"><tspan
         sodipodi:role="line"
         id="tspan3852"
         x="589.39203"
         y="486.02109">      to</tspan><tspan
         sodipodi:role="line"
         x="589.39203"
         y="501.02109"
         id="tspan3855">speakers</tspan></text>
    <path
       style="fill:none;stroke:#000000;stroke-width:1px;stroke-linecap:butt;stroke-linejoin:miter;stroke-opacity:1"
       d="m 620,532.362 -20,20"
       id="path3857"
       inkscape:connector-curvature="0" />
    <text
       xml:space="preserve"
       style="font-size:12px;font-style:normal;font-variant:normal;font-weight:normal;font-stretch:normal;text-align:start;line-height:125%;letter-spacing:0px;word-spacing:0px;writing-mode:lr-tb;text-anchor:start;fill:#000000;fill-opacity:1;stroke:none;font-family:Utopia;-inkscape-font-specification:Utopia"
       x="621.55682"
       y="546.00409"
       id="text3859"
       sodipodi:linespacing="125%"><tspan
         sodipodi:role="line"
         id="tspan3861"
         x="621.55682"
         y="546.00409">6</tspan></text>
    <rect
       y="274.4245"
       x="576.7373"
       height="30"
       width="60"
       id="rect3863"
       style="fill:#000000;fill-opacity:0;stroke:#000000;stroke-width:1.11803401;stroke-opacity:1" />
    <text
       sodipodi:linespacing="125%"
       id="text3865"
       y="292.362"
       x="580"
       style="font-size:12px;font-style:normal;font-variant:normal;font-weight:normal;font-stretch:normal;text-align:start;line-height:125%;letter-spacing:0px;word-spacing:0px;writing-mode:lr-tb;text-anchor:start;fill:#000000;fill-opacity:1;stroke:none;font-family:Utopia;-inkscape-font-specification:Utopia"
       xml:space="preserve"><tspan
         y="292.362"
         x="580"
         id="tspan3867"
         sodipodi:role="line">speaker 1</tspan></text>
    <rect
       y="438.08359"
       x="26.129364"
       height="30"
       width="60"
       id="rect3869"
       style="fill:#000000;fill-opacity:0;stroke:#000000;stroke-width:1.11803401;stroke-opacity:1" />
    <text
       sodipodi:linespacing="125%"
       id="text3871"
       y="456.02109"
       x="29.392029"
       style="font-size:12px;font-style:normal;font-variant:normal;font-weight:normal;font-stretch:normal;text-align:start;line-height:125%;letter-spacing:0px;word-spacing:0px;writing-mode:lr-tb;text-anchor:start;fill:#000000;fill-opacity:1;stroke:none;font-family:Utopia;-inkscape-font-specification:Utopia"
       xml:space="preserve"><tspan
         y="456.02109"
         x="29.392029"
         id="tspan3873"
         sodipodi:role="line">speaker 3</tspan></text>
    <rect
       style="fill:#000000;fill-opacity:0;stroke:#000000;stroke-width:1.11803401;stroke-opacity:1"
       id="rect3875"
       width="60"
       height="30"
       x="656.12933"
       y="438.08359" />
    <text
       xml:space="preserve"
       style="font-size:12px;font-style:normal;font-variant:normal;font-weight:normal;font-stretch:normal;text-align:start;line-height:125%;letter-spacing:0px;word-spacing:0px;writing-mode:lr-tb;text-anchor:start;fill:#000000;fill-opacity:1;stroke:none;font-family:Utopia;-inkscape-font-specification:Utopia"
       x="659.39203"
       y="456.02109"
       id="text3877"
       sodipodi:linespacing="125%"><tspan
         sodipodi:role="line"
         id="tspan3879"
         x="659.39203"
         y="456.02109">speaker 4</tspan></text>
    <rect
       y="828.08362"
       x="656.12933"
       height="30"
       width="60"
       id="rect3881"
       style="fill:#000000;fill-opacity:0;stroke:#000000;stroke-width:1.11803401;stroke-opacity:1" />
    <text
       sodipodi:linespacing="125%"
       id="text3883"
       y="846.02112"
       x="659.39203"
       style="font-size:12px;font-style:normal;font-variant:normal;font-weight:normal;font-stretch:normal;text-align:start;line-height:125%;letter-spacing:0px;word-spacing:0px;writing-mode:lr-tb;text-anchor:start;fill:#000000;fill-opacity:1;stroke:none;font-family:Utopia;-inkscape-font-specification:Utopia"
       xml:space="preserve"><tspan
         y="846.02112"
         x="659.39203"
         id="tspan3885"
         sodipodi:role="line">speaker 6</tspan></text>
    <rect
       style="fill:#000000;fill-opacity:0;stroke:#000000;stroke-width:1.11803401;stroke-opacity:1"
       id="rect3887"
       width="60"
       height="30"
       x="26.129333"
       y="828.08362" />
    <text
       xml:space="preserve"
       style="font-size:12px;font-style:normal;font-variant:normal;font-weight:normal;font-stretch:normal;text-align:start;line-height:125%;letter-spacing:0px;word-spacing:0px;writing-mode:lr-tb;text-anchor:start;fill:#000000;fill-opacity:1;stroke:none;font-family:Utopia;-inkscape-font-specification:Utopia"
       x="29.392029"
       y="846.02112"
       id="text3889"
       sodipodi:linespacing="125%"><tspan
         sodipodi:role="line"
         id="tspan3891"
         x="29.392029"
         y="846.02112">speaker 5</tspan></text>
    <rect
       style="fill:#000000;fill-opacity:0;stroke:#000000;stroke-width:1.11803401;stroke-opacity:1"
       id="rect3895"
       width="60"
       height="30"
       x="185.81688"
       y="754.0722" />
    <text
       xml:space="preserve"
       style="font-size:12px;font-style:normal;font-variant:normal;font-weight:normal;font-stretch:normal;text-align:start;line-height:125%;letter-spacing:0px;word-spacing:0px;writing-mode:lr-tb;text-anchor:start;fill:#000000;fill-opacity:1;stroke:none;font-family:Utopia;-inkscape-font-specification:Utopia"
       x="191.24432"
       y="774.37335"
       id="text3897"
       sodipodi:linespacing="125%"><tspan
         sodipodi:role="line"
         id="tspan3899"
         x="191.24432"
         y="774.37335">computer</tspan></text>
    <path
       style="fill:none;stroke:#000000;stroke-width:1px;stroke-linecap:butt;stroke-linejoin:miter;stroke-opacity:1"
       d="m 220,722.362 0,30"
       id="path3901"
       inkscape:connector-curvature="0" />
    <text
       xml:space="preserve"
       style="font-size:12px;font-style:normal;font-variant:normal;font-weight:normal;font-stretch:normal;text-align:start;line-height:125%;letter-spacing:0px;word-spacing:0px;writing-mode:lr-tb;text-anchor:start;fill:#000000;fill-opacity:1;stroke:none;font-family:Utopia;-inkscape-font-specification:Utopia"
       x="225.14774"
       y="741.60071"
       id="text3903"
       sodipodi:linespacing="125%"><tspan
         sodipodi:role="line"
         id="tspan3905"
         x="225.14774"
         y="741.60071">USB</tspan></text>
    <text
       xml:space="preserve"
       style="font-size:12px;font-style:normal;font-variant:normal;font-weight:normal;font-stretch:normal;text-align:start;line-height:125%;letter-spacing:0px;word-spacing:0px;writing-mode:lr-tb;text-anchor:start;fill:#000000;fill-opacity:1;stroke:none;font-family:Utopia;-inkscape-font-specification:Utopia"
       x="496.64203"
       y="587.04382"
       id="text3907"
       sodipodi:linespacing="125%"><tspan
         sodipodi:role="line"
         id="tspan3909"
         x="496.64203"
         y="587.04382">chanel</tspan><tspan
         sodipodi:role="line"
         x="496.64203"
         y="602.04382"
         id="tspan3917">input</tspan></text>
    <text
       xml:space="preserve"
       style="font-size:12px;font-style:normal;font-variant:normal;font-weight:normal;font-stretch:normal;text-align:start;line-height:125%;letter-spacing:0px;word-spacing:0px;writing-mode:lr-tb;text-anchor:start;fill:#000000;fill-opacity:1;stroke:none;font-family:Utopia;-inkscape-font-specification:Utopia"
       x="599.39203"
       y="586.02112"
       id="text3911"
       sodipodi:linespacing="125%"><tspan
         sodipodi:role="line"
         id="tspan3913"
         x="599.39203"
         y="586.02112">line</tspan><tspan
         sodipodi:role="line"
         x="599.39203"
         y="601.02112"
         id="tspan3915">out</tspan></text>
    <text
       xml:space="preserve"
       style="font-size:12px;font-style:normal;font-variant:normal;font-weight:normal;font-stretch:normal;text-align:start;line-height:125%;letter-spacing:0px;word-spacing:0px;writing-mode:lr-tb;text-anchor:start;fill:#000000;fill-opacity:1;stroke:none;font-family:Utopia;-inkscape-font-specification:Utopia"
       x="170"
       y="112.362"
       id="text3071"
       sodipodi:linespacing="125%"><tspan
         sodipodi:role="line"
         id="tspan3073"
         x="170"
         y="112.362">Technical diagram for Philippe Manoury's Pluton, for piano and electronics</tspan></text>
    <text
       xml:space="preserve"
       style="font-size:12px;font-style:normal;font-variant:normal;font-weight:normal;font-stretch:normal;text-align:start;line-height:125%;letter-spacing:0px;word-spacing:0px;writing-mode:lr-tb;text-anchor:start;fill:#000000;fill-opacity:1;stroke:none;font-family:Utopia;-inkscape-font-specification:Utopia"
       x="45.204544"
       y="855.25568"
       id="text3087"
       sodipodi:linespacing="125%"
       transform="translate(0,62.362)"><tspan
         sodipodi:role="line"
         id="tspan3089"
         x="45.204544"
         y="855.25568">Note: the performers will supply the PianoBar and Fast-Track Ultra.  The piece can be performed with four loudspeakers in</tspan><tspan
         sodipodi:role="line"
         x="45.204544"
         y="870.25568"
         id="tspan3091">place of six.  It may be desirable to use more than one microphone to provide good coverage of the piano.   </tspan></text>
    <text
       xml:space="preserve"
       style="font-size:12px;font-style:normal;font-variant:normal;font-weight:normal;font-stretch:normal;text-align:start;line-height:125%;letter-spacing:0px;word-spacing:0px;writing-mode:lr-tb;text-anchor:start;fill:#000000;fill-opacity:1;stroke:none;font-family:Utopia;-inkscape-font-specification:Utopia"
       x="46.943184"
       y="895.24432"
       id="text3093"
       sodipodi:linespacing="125%"
       transform="translate(0,62.362)"><tspan
         sodipodi:role="line"
         id="tspan3095"
         x="46.943184"
         y="895.24432">There are lighting cues: the piece starts in complete darkness.  As oon as the first piano note is struck the lights should come on</tspan><tspan
         sodipodi:role="line"
         x="46.943184"
         y="910.24432"
         id="tspan3097">as quickly as possible.  About 2 minutes from the end, the lights fade out over about 30 seconds, and when the sound stops they</tspan><tspan
         sodipodi:role="line"
         x="46.943184"
         y="925.24432"
         id="tspan3099">should fade on again over about 5 seconds.</tspan></text>
    <text
       xml:space="preserve"
       style="font-size:12px;font-style:normal;font-variant:normal;font-weight:normal;font-stretch:normal;text-align:start;line-height:125%;letter-spacing:0px;word-spacing:0px;writing-mode:lr-tb;text-anchor:start;fill:#000000;fill-opacity:1;stroke:none;font-family:Utopia;-inkscape-font-specification:Utopia"
       x="51.289772"
       y="952.61932"
       id="text3101"
       sodipodi:linespacing="125%"
       transform="translate(0,62.362)"><tspan
         sodipodi:role="line"
         id="tspan3103"
         x="51.289772"
         y="952.61932">The mixer and computer  should be placed on a table at front of house..</tspan></text>
  </g>
</svg>
