   21    23     0    33    62    62
   23    33   113    44   121   121
   23    42   129    85   125   125
   27    46     0    66   127   127
   33    42   103    79   119   119
   33    44   143    69   120   120
   35    41     0    10   127   127
   35    46     0    43   127   127
   36    37   103    47   127   127
   36    40     0   119   125   125
   36    46    91    68   120   120
   37    21   124    43   124   124
   37    41     0     8   127   127
   37    42   124    71   127   127
   37    50     0    14   127   127
   40    36   120   103   120   120
   40    41   116    75   123   123
   40    42   108    75   127   127
   40    46    52  8067   127   127
   41    33    65    46   124   124
   41    35    94   116   117   117
   41    36   104    84   124   124
   41    37    97    44   127   127
   41    42   107    78   124   124
   41    50   110    53   119   119
   41    60    69    94   126   126
   42    23   107   113   117   117
   42    40   119    97   124   124
   42    41   113    42   125   125
   42    42   121    34   127   127
   42    44    97   137   116   116
   42    48     0    36   127   127
   42    50   108    53   111   111
   42    52    85   126   122   122
   42    58   108    74   127   127
   43    43    56    20   127   127
   43    46     0    55   127   127
   43    47     0    43   122   122
   44    41   104    65   124   124
   44    43   124    37   123   123
   44    47   103    78   120   120
   44    50     0    13   127   127
   44    52    91   121   119   119
   46    27   110    89   121   121
   46    33   113    68   125   125
   46    35     0    65   115   115
   46    36    63     8   127   127
   46    41    55   132   126   126
   46    42    62   116   127   127
   46    43   120    68   122   122
   46    48     0    52    62    62
   46    54    60    95   124   124
   47    52    89   124   120   120
   47    58   101    66   127   127
   48    42   113    74   127   127
   48    46     0    29   127   127
   49    70   116   120   120   120
   50    37    97    46   124   124
   50    40   104    89   125   125
   50    41     0    10   127   127
   50    42   111    44   122   122
   50    44   100   116   117   117
   50    46    50    89   126   126
   50    48    92    65   127   127
   50    50   134    13   127   127
   50    55   108    74   124   124
   51    47    78    47   121   121
   51    60   111    59   127   127
   52    50   116    65   119   119
   52    55   108    69   125   125
   54    41   136    72   127   127
   55    33   137    87   127   127
   55    37    85    34   123   123
   55    41   117   126   121   121
   55    46   123    43   118   118
   55    60   101    75   127   127
   56    58   104   120    28    28
   58    42   121    81   127   127
   58    64     0    63   127   127
   58    83   108    94   124   124
   60    33    89    98   121   121
   60    49   116    79   125   125
   60    51     0    10   127   127
   60    55   103    92   119   119
   61    51   120    71   127   127
   61    75   104   127   121   121
   64    55   105    78   127   127
   64    61   105    76   127   127
   64    82   121    79   112   112
   69    64   119    68   125   125
   69    75   108   129   120   120
   70    60   117    74   127   127
   70    64   104   121   124   124
   72    82   105    65   111   111
   74    61   101    74   126   126
   75    72   113    92   118   118
   75    74   104    78   120   120
   77    69   107    78   127   127
   77    82    82   143   116   116
   78    69   114    79   127   127
   82    56    98   145   127   127
   82    77   111    81   119   119
   82    78   105    85   127   127
   83    77   129   110   101   101
