   22    22   449  5185   123   123
   22    36  2290    69    98    98
   22    42  1062  2532   119   119
   22    47  2827   187   127   127
   22    53  2329   216   127   127
   28    22  1674   981    38    38
   33    28  2198  3607   121   121
   33    42   345   119    56    56
   33    61   397    52    84    84
   33    64   259    87    66    66
   33    75   249    84   116   116
   36    28   473  1000   127   127
   36    33   690  1146    48    48
   36    42   246    78   127   127
   36    50   397    50    18    18
   36    53   137    60    68    68
   36    61   497   686    84    84
   36    75   227    98   115   115
   42    28   444  1306   119   119
   42    33   303    37    36    36
   42    36  3060    71    80    80
   42    53   808   113    50    50
   47    22  2665  3557    44    44
   47    28  1069  2568   127   127
   47    53   222  2002   117   117
   50    53   206    58    83    83
   50    64   197    52   107   107
   50    75   121    92   107   107
   53    33   446    43    38    38
   53    42   271    42    64    64
   53    47  1930  1271   122   122
   53    53    69    14   127   127
   53    61   184   583    99    99
   53    64   693    74    72    72
   53    68    88    79   116   116
   53    71    94    74   120   120
   53    75   127    85   115   115
   53    79    59   105   116   116
   53    81    97   104   127   127
   53    84    68    74   118   118
   53    86     0   145    92    92
   58    72    97   168   117   117
   58    86   117    97    97    97
   61    33   445    65    59    59
   61    42   657    68    61    61
   61    50   565   114    29    29
   61    53   452   103    63    63
   61    64   583   394    82    82
   61    75   296    79   115   115
   63    58   114    71   121   121
   64    36   608   506    61    61
   64    53   628    79    43    43
   64    61   457    74    81    81
   64    73    95    58   123   123
   64    86   837   108    82    82
   66    58   108    88   121   121
   67    86   116    71   117   117
   68    53     0    42   127   127
   70    79   107    84   108   108
   71    53    53    31   127   127
   72    63    91    91    97    97
   72    72   491    69   119   119
   72    81   104    91   127   127
   72    86   120   204    86    86
   73    64   104    78   114   114
   73    78   103   152   122   122
   75    42   313    84    68    68
   75    53   140    81    53    53
   75    61   661   271    81    81
   75    66   105    56   120   120
   75    78   108    82   119   119
   75    84   107    78   118   118
   76    81   107    82   125   125
   77    64   111   108   108   108
   78    84   121   159   106   106
   78    86   104    84   102   102
   79    53    94    59   122   122
   79    76   113   148   120   120
   80    67   129   111   124   124
   81    53   119    66   121   121
   81    61   123   110   124   124
   81    70   105   136   115   115
   81    75   116    71   118   118
   83    72   121    65   118   118
   83    73   113    49   124   124
   84    53   113   133   123   123
   84    64   143    84   119   119
   84    81   111    82   123   123
   86    53     0    44   127   127
   86    58   126   116   120   120
   86    77   120    53   118   118
   86    80   119    82   116   116
   86    83    98    43   119   119
   86    86   998   208    97    97
