   22    22   449  5185   123   123
   22    28     0   108   127   127
   22    36   178  1282   124   124
   22    39   197   612   127   127
   22    41     0   335   127   127
   22    42  1062  2532   119   119
   22    47  2827   187   127   127
   22    53  2329   216   127   127
   22    59   148    71   127   127
   24    51     0   619    99    99
   26    27     0    74    78    78
   26    59  1651    50   107   107
   27    46     0   107    20    20
   28    22  1674   981    38    38
   28    32   208   563    50    50
   28    36    94    72   127   127
   28    43     0   181   127   127
   28    45   166  1000   127   127
   32    28   142   136   127   127
   32    36   759    95   120   120
   32    50     0  1036    77    77
   32    51   185   211   127   127
   32    62   731    88   127   127
   33    28  2198  3607   121   121
   33    42   345   119    56    56
   33    61   397    52    84    84
   33    64   259    87    66    66
   33    75   249    84   116   116
   34    24     0   899   115   115
   36    22   105   741   124   124
   36    28   473  1000   127   127
   36    33   690  1146    48    48
   36    34     0   915   127   127
   36    42   246    78   127   127
   36    45     0   207   127   127
   36    49   285   256   127   127
   36    50   397    50    18    18
   36    51   162   203   127   127
   36    53   137    60    68    68
   36    61   497   686    84    84
   36    62   468   219   127   127
   36    75   227    98   115   115
   39    22     0   113   124   124
   39    53     0  1095   127   127
   39    59   367    81   127   127
   41    36     0   925   127   127
   42    28   444  1306   119   119
   42    33   303    37    36    36
   42    36  3060    71    80    80
   42    53   808   113    50    50
   43    22   339  1577   122   122
   43    26     0    56    48    48
   43    28   441   683    69    69
   43    32   129   172   121   121
   43    62   399   246   127   127
   45    28   179    55   118   118
   45    39     0   120   127   127
   45    54   355   399   127   127
   45    62   342   551   127   127
   45    83   267   158   124   124
   46    81  2134  1000   127   127
   47    22  2665  3557    44    44
   47    28  1069  2568   127   127
   47    53   222  2002   117   117
   49    36     0    98   127   127
   49    39     0   825   127   127
   49    43   200   593   127   127
   49    45   246   445   127   127
   49    54   129   116   127   127
   49    59   139    91   127   127
   49    62     0    55   127   127
   50    22     0   941   115   115
   50    51     0    62    71    71
   50    53   206    58    83    83
   50    64   197    52   107   107
   51    26     0    76    78    78
   51    45   155   326   127   127
   51    49   988   214   127   127
   51    50   963    42    55    55
   51    53     0    79   117   117
   51    60     0    24    54    54
   52    53    52    29   127   127
   53    32     0  1011   123   123
   53    33   446    43    38    38
   53    42   271    42    64    64
   53    45   403    94   121   121
   53    47  1930  1271   122   122
   53    49   467  1039   120   120
   53    61     0   107   127   127
   53    64   693    74    72    72
   53    66   465    55   127   127
   53    73     0   111   120   120
   53    75   127    85   115   115
   54    43   201  1155   112   112
   54    49     0    59   127   127
   54    53     0    40    33    33
   54    64     0    91   126   126
   54    79     0   229   118   118
   55    65     0    53    43    43
   56    53    74    14   127   127
   58    54   148   371   127   127
   58    60     0    75    74    74
   59    43   132   126   127   127
   59    49   165    91   127   127
   59    53     0    88   126   126
   59    64     0   119   121   121
   60    51   130     5   127   127
   61    33   445    65    59    59
   61    42   657    68    61    61
   61    50   565   114    29    29
   61    53   452   103    63    63
   61    58     0    69   120   120
   61    64   583   394    82    82
   61    71     0    91   124   124
   61    75   296    79   115   115
   62    22   120    76   125   125
   62    49   124    82   127   127
   62    51     0    87   127   127
   62    58    75   126    15    15
   62    59   175   146   127   127
   62    73     0   359   124   124
   63    66     0    74   122   122
   64    36   608   506    61    61
   64    52     0    82    37    37
   64    53   628    79    43    43
   64    61   457    74    81    81
   64    63    59   129    31    31
   65    56     0   124    22    22
   65    71     0    37    31    31
   66    59     0    95   127   127
   66    78     0   827   127   127
   67    61     0    87   127   127
   68    76     0   113   126   126
   70    79     0    92   119   119
   71    45  1204    60   127   127
   71    79     0   134   120   120
   72    51     0    71   127   127
   72    79     0  1000   127   127
   73    54     0    79   126   126
   73    86     0   114   111   111
   75    42   313    84    68    68
   75    53   140    81    53    53
   75    61   661   271    81    81
   75    77     0   851   120   120
   76    54     0    78    53    53
   76    81     0   100   127   127
   77    65     0    46    41    41
   78    73     0    76   120   120
   79    54    68   101   127   127
   79    68     0    92   126   126
   79    72     0   317   127   127
   79    80     0  1000   124   124
   80    67     0    94   127   127
   81    55     0    74    41    41
   81    84     0    88   120   120
   81    86     0  1000   120   120
   83    62     0    74   127   127
   83    84     0   124   115   115
   84    70     0    78   127   127
   84    81     0    59   111   111
   86    72     0   100   124   124
   86    75     0   896   125   125
   86    83     0   111   123   123
