   22    22   529   175    98    98
   22    36  3184   245    63    63
   22    42  1158  2201   120   120
   22    47  2266   175   124   124
   22    53  2053   178   127   127
   28    22  1697  1372    29    29
   33    28  1888  1232   123   123
   33    42   346   197    51    51
   33    61   354    44    84    84
   33    64   323   381   109   109
   33    75   269    97   127   127
   36    28   647  1000   127   127
   36    33   731 10000    49    49
   36    42   280   129   127   127
   36    50   565    43    45    45
   36    53   162    78    58    58
   36    61   547   846    74    74
   36    75   312    95   125   125
   42    28   419  3336   121   121
   42    33   319   134    49    49
   42    36  2555    87    68    68
   42    50   753    50    49    49
   42    53   922    97    53    53
   47    22  2487  1838    30    30
   47    28  1057  3024   127   127
   47    53   185  2876   117   117
   50    36   365    85    40    40
   50    53   268    63    21    21
   50    64   238    74   100   100
   53    33   509    89    59    59
   53    42   227    52    69    69
   53    47  2771  1000   110   110
   53    50   132    42    66    66
   53    53    62    10   127   127
   53    61   120   684    84    84
   53    75   113   126   127   127
   61    33   477   124    72    72
   61    42   703   103    45    45
   61    50   568    88    62    62
   61    53   415    59    36    36
   61    64   684   142    59    59
   61    75   290    66   126   126
   64    36   671   847    38    38
   64    53   727    84    70    70
   64    61   528    88    79    79
   75    42   314    85    37    37
   75    53   153    40    80    80
   75    61   830   682    63    63
