   22    22   449  5185   123   123
   22    36  2290    69    98    98
   22    42  1062  2532   119   119
   22    47  2827   187   127   127
   22    53  2329   216   127   127
   28    22  1674   981    38    38
   33    28  2198  3607   121   121
   33    42   345   119    56    56
   33    61   397    52    84    84
   33    64   259    87    66    66
   33    75   249    84   116   116
   36    28   473  1000   127   127
   36    33   690  1146    48    48
   36    42   246    78   127   127
   36    50   397    50    18    18
   36    53   137    60    68    68
   36    61   497   686    84    84
   36    75   227    98   115   115
   42    28   444  1306   119   119
   42    33   303    37    36    36
   42    36  3060    71    80    80
   42    53   808   113    50    50
   47    22  2665  3557    44    44
   47    28  1069  2568   127   127
   47    53   222  2002   117   117
   50    53   206    58    83    83
   50    64   197    52   107   107
   53    33   446    43    38    38
   53    42   271    42    64    64
   53    47  1930  1271   122   122
   53    61   184   583    99    99
   53    64   693    74    72    72
   53    75   127    85   115   115
   61    33   445    65    59    59
   61    42   657    68    61    61
   61    50   565   114    29    29
   61    53   452   103    63    63
   61    64   583   394    82    82
   61    75   296    79   115   115
   64    36   608   506    61    61
   64    53   628    79    43    43
   64    61   457    74    81    81
   75    42   313    84    68    68
   75    53   140    81    53    53
   75    61   661   271    81    81
