1000 60 1
1000 62 2
1000 64 3
1000 65 4
1000 67 5
1000 65 6
1000 64 7
1000 62 8
1000 60 9
1000 60 10
1000 60 11
1000 60 12
1000 60 13
1000 60 14
1000 60 15
1000 60 16
1000 60 17
1000 60 18
1000 60 19
1000 60 20
1000 60 21
1000 60 22
1000 60 23
1000 60 24
1000 60 25
1000 60 26
1000 60 27
1000 60 28
1000 60 29
1000 60 30
1000 60 31
1000 60 32
1000 60 33
1000 60 34
1000 60 35
1000 60 36
1000 60 37
1000 60 38
1000 60 39
1000 60 40
1000 60 41
1000 60 42
1000 60 43
1000 60 44
1000 60 45
1000 60 46
1000 60 47
1000 60 48
1000 60 49
1000 60 50
