14767.9 79 10 5;
127.71 90 10 5;
87.0748 93 10 5;
116.1 68 10 5;
139.32 74 10 5;
92.8798 85 10 5;
95.7823 84 10 5;
136.417 76 10 5;
116.1 63 10 5;
124.807 80 10 5;
39.1837 78 10 5;
68.2086 86 10 5;
104.49 91 10 5;
98.6848 70 10 5;
119.002 81 10 5;
104.49 91 10 5;
113.197 85 10 5;
110.295 82 10 5;
113.197 72 10 5;
114.649 81 10 5;
132.063 68 10 5;
116.1 79 10 5;
113.197 61 10 5;
4.35374 63 10 5;
27.5737 62 10 5;
59.5011 79 10 5;
1079.73 79 10 5;
222.041 98 10 5;
91.4286 103 10 5;
108.844 99 10 5;
104.49 90 10 5;
121.905 85 10 5;
113.197 103 10 5;
37.7324 99 10 5;
66.7574 98 10 5;
117.551 90 10 5;
107.392 96 10 5;
120.454 95 10 5;
110.295 82 10 5;
95.7823 96 10 5;
104.49 93 10 5;
126.259 103 10 5;
91.4286 77 10 5;
116.1 85 10 5;
116.1 74 10 5;
127.71 54 10 5;
